
material Standard_4
{
	technique
	{
		pass
		{
			ambient 0.588 0.588 0.588 1
			diffuse 0.588 0.588 0.588 1
			specular 0.81 0.81 0.81 10 0

			texture_unit
			{
				texture abrams_desert_col.iwi_out.dds
			}
		}

	}

}



material Standard_5
{
	technique
	{
		pass
		{
			ambient 0.588 0.588 0.588 1
			diffuse 0.588 0.588 0.588 1
			specular 0.594 0.594 0.594 10 0

			texture_unit
			{
				texture abrams_desert_dmg_col.iwi_out.dds
			}
		}

	}

}



material Standard_6
{
	technique
	{
		pass
		{
			ambient 0.588 0.588 0.588 1
			diffuse 0.588 0.588 0.588 1
			specular 2.988 2.988 2.988 10 0

			texture_unit
			{
				texture abrams_desert_tread_col.iwi_out.dds
			}
		}

	}

}



material Standard_7
{
	technique
	{
		pass
		{
			ambient 0.588 0.588 0.588 1
			diffuse 0.588 0.588 0.588 1
			specular 0.855 0.855 0.855 10 0

			texture_unit
			{
				texture abrams_desert_dmg_tread_col.iwi_out.dds
			}
		}

	}

}


