material Projectile/HindMainGunProjectile
{
	technique
	{
		pass
		{
			lighting off
			scene_blend alpha_blend
			depth_check on

			texture_unit
			{
				texture HindMainGunProjectile.png
			}
		}
	}
}
